#FIG 3.2  Produced by xfig version 3.2.5c
Landscape
Center
Metric
A4      
190.00
Single
-2
1200 2
6 4050 2880 4950 3060
2 2 0 1 0 1 51 -1 34 0.000 0 0 7 0 0 5
	 4050 2880 4950 2880 4950 3060 4050 3060 4050 2880
4 1 0 50 -1 16 8 0.0000 4 90 165 4500 3015 stack 2\001
-6
2 1 0 1 0 7 50 -1 16 0.000 0 0 -1 0 0 2
	 2340 1080 2970 1080
2 1 0 1 0 7 50 -1 16 0.000 0 0 -1 0 0 2
	 2340 1215 2970 1215
2 1 0 1 0 7 50 -1 16 0.000 0 0 -1 0 0 2
	 2340 1350 2970 1350
2 1 0 1 0 7 50 -1 16 0.000 0 0 -1 0 0 2
	 2340 1485 2970 1485
2 1 0 1 0 7 50 -1 16 0.000 0 0 -1 0 0 2
	 2340 1620 2970 1620
2 1 0 1 0 7 50 -1 16 0.000 0 0 -1 0 0 2
	 2340 1755 2970 1755
2 1 0 1 0 7 50 -1 16 0.000 0 0 -1 0 0 2
	 2340 945 2970 945
2 2 0 1 0 19 51 -1 36 0.000 0 0 -1 0 0 5
	 2340 810 2970 810 2970 1890 2340 1890 2340 810
2 1 0 1 0 7 50 -1 16 0.000 0 0 -1 0 0 2
	 2340 3510 2970 3510
2 1 0 1 0 7 50 -1 16 0.000 0 0 -1 0 0 2
	 2340 3645 2970 3645
2 1 0 1 0 7 50 -1 16 0.000 0 0 -1 0 0 2
	 2340 3780 2970 3780
2 1 0 1 0 7 50 -1 16 0.000 0 0 -1 0 0 2
	 2340 3915 2970 3915
2 1 0 1 0 7 50 -1 16 0.000 0 0 -1 0 0 2
	 2340 4050 2970 4050
2 1 0 1 0 7 50 -1 16 0.000 0 0 -1 0 0 2
	 2340 4185 2970 4185
2 1 0 1 0 7 50 -1 16 0.000 0 0 -1 0 0 2
	 2340 3375 2970 3375
2 2 0 1 0 19 51 -1 36 0.000 0 0 -1 0 0 5
	 2340 3240 2970 3240 2970 4320 2340 4320 2340 3240
2 1 0 1 0 7 50 -1 -1 0.000 0 0 -1 0 0 2
	 2610 3240 2610 4320
2 1 0 1 0 7 50 -1 -1 0.000 0 0 -1 0 0 2
	 2610 810 2610 1890
2 2 0 1 0 7 52 -1 16 0.000 0 0 -1 0 0 5
	 450 450 1350 450 1350 2250 450 2250 450 450
2 2 0 1 0 7 52 -1 16 0.000 0 0 7 0 0 5
	 450 2700 1350 2700 1350 4500 450 4500 450 2700
2 2 0 1 0 2 51 -1 34 0.000 0 0 -1 0 0 5
	 450 720 1350 720 1350 900 450 900 450 720
2 2 0 1 0 2 51 -1 34 0.000 0 0 7 0 0 5
	 450 1890 1350 1890 1350 2070 450 2070 450 1890
2 2 0 1 0 2 51 -1 34 0.000 0 0 7 0 0 5
	 450 4140 1350 4140 1350 4320 450 4320 450 4140
2 2 0 1 0 2 51 -1 34 0.000 0 0 7 0 0 5
	 450 2970 1350 2970 1350 3330 450 3330 450 2970
2 2 0 1 0 2 51 -1 34 0.000 0 0 7 0 0 5
	 450 1125 1350 1125 1350 1485 450 1485 450 1125
2 2 0 1 0 2 51 -1 34 0.000 0 0 7 0 0 5
	 450 3510 1350 3510 1350 3780 450 3780 450 3510
2 2 0 1 0 1 51 -1 34 0.000 0 0 7 0 0 5
	 4050 1080 4950 1080 4950 1350 4050 1350 4050 1080
2 2 0 1 0 1 51 -1 34 0.000 0 0 7 0 0 5
	 4050 1350 4950 1350 4950 1530 4050 1530 4050 1350
2 2 0 1 0 1 51 -1 34 0.000 0 0 7 0 0 5
	 4050 1710 4950 1710 4950 2070 4050 2070 4050 1710
2 2 0 1 0 1 51 -1 34 0.000 0 0 7 0 0 5
	 4050 2070 4950 2070 4950 2430 4050 2430 4050 2070
2 2 0 1 0 1 51 -1 34 0.000 0 0 7 0 0 5
	 4050 2430 4950 2430 4950 2610 4050 2610 4050 2430
2 2 0 1 0 7 52 -1 16 0.000 0 0 7 0 0 5
	 4050 900 4950 900 4950 3960 4050 3960 4050 900
2 2 0 1 0 0 55 -1 20 0.000 0 0 -1 0 0 5
	 495 495 1395 495 1395 2295 495 2295 495 495
2 2 0 1 0 0 55 -1 20 0.000 0 0 -1 0 0 5
	 2385 855 3015 855 3015 1935 2385 1935 2385 855
2 2 0 1 0 0 55 -1 20 0.000 0 0 -1 0 0 5
	 4095 945 4995 945 4995 4005 4095 4005 4095 945
2 2 0 1 0 0 55 -1 20 0.000 0 0 -1 0 0 5
	 2385 3285 3015 3285 3015 4365 2385 4365 2385 3285
2 2 0 1 0 0 55 -1 20 0.000 0 0 -1 0 0 5
	 495 2745 1395 2745 1395 4545 495 4545 495 2745
3 0 0 1 1 0 52 -1 -1 0.000 0 1 0 5
	1 1 1.00 45.00 90.00
	 2970 990 3330 1035 3330 2115 3510 2520 3690 2520
	 0.000 1.000 1.000 1.000 0.000
3 0 0 1 1 0 52 -1 -1 0.000 0 1 0 5
	1 1 1.00 45.00 90.00
	 2970 1125 3105 1125 3465 1125 3465 1800 3690 1890
	 0.000 1.000 1.000 1.000 0.000
3 0 0 1 1 0 52 -1 -1 0.000 0 1 0 4
	1 1 1.00 45.00 90.00
	 2970 1800 3150 1800 3195 1440 3735 1440
	 0.000 1.000 1.000 0.000
3 0 0 1 1 0 52 -1 -1 0.000 0 1 0 3
	1 1 1.00 45.00 90.00
	 1350 1215 1800 1215 2205 1125
	 0.000 1.000 0.000
3 0 0 1 1 0 52 -1 -1 0.000 0 1 0 3
	1 1 1.00 45.00 90.00
	 1350 765 1845 765 2205 990
	 0.000 1.000 0.000
3 0 0 1 1 0 52 -1 -1 0.000 0 1 0 3
	1 1 1.00 45.00 90.00
	 1350 1935 1755 1800 2205 1800
	 0.000 1.000 0.000
3 0 0 1 25 0 53 -1 -1 0.000 0 1 0 4
	1 1 1.00 45.00 90.00
	 2970 4275 3510 4275 3510 3150 3690 2970
	 0.000 1.000 1.000 0.000
3 0 0 1 25 0 53 -1 -1 0.000 0 1 0 4
	1 1 1.00 45.00 90.00
	 2970 3465 3420 3465 3420 2250 3690 2250
	 0.000 1.000 1.000 0.000
3 0 0 1 25 0 53 -1 -1 0.000 0 1 0 5
	1 1 1.00 45.00 90.00
	 2970 3600 3240 3600 3240 1215 3555 1215 3735 1215
	 0.000 1.000 1.000 1.000 0.000
3 0 0 1 25 0 53 -1 -1 0.000 0 1 0 3
	1 1 1.00 45.00 90.00
	 1350 3060 1845 3105 2205 3420
	 0.000 1.000 0.000
3 0 0 1 25 0 53 -1 -1 0.000 0 1 0 3
	1 1 1.00 45.00 90.00
	 1350 3600 1800 3555 2205 3555
	 0.000 1.000 0.000
3 0 0 1 25 0 53 -1 -1 0.000 0 1 0 3
	1 1 1.00 45.00 90.00
	 1350 4185 1935 4185 2205 4230
	 0.000 1.000 0.000
4 1 0 50 -1 16 5 0.0000 4 60 360 2790 1035 017000\001
4 1 0 50 -1 16 5 0.0000 4 60 180 2475 1035 017\001
4 1 0 50 -1 16 5 0.0000 4 60 180 2475 1170 037\001
4 1 0 50 -1 16 5 0.0000 4 60 300 2790 1170 07000\001
4 1 0 50 -1 16 5 0.0000 4 75 315 2655 1305 invalide\001
4 1 0 50 -1 16 5 0.0000 4 75 315 2655 1440 invalide\001
4 1 0 50 -1 16 5 0.0000 4 75 315 2655 1575 invalide\001
4 1 0 50 -1 16 5 0.0000 4 75 315 2655 1710 invalide\001
4 1 0 50 -1 16 5 0.0000 4 60 180 2475 1845 017\001
4 1 0 50 -1 16 5 0.0000 4 60 300 2790 1845 04000\001
4 2 0 50 -1 16 5 0.0000 4 60 60 2295 900 0\001
4 2 0 50 -1 16 5 0.0000 4 60 60 2295 1035 1\001
4 2 0 50 -1 16 5 0.0000 4 60 60 2295 1170 2\001
4 2 0 50 -1 16 5 0.0000 4 60 60 2295 1305 3\001
4 2 0 50 -1 16 5 0.0000 4 60 60 2295 1440 4\001
4 2 0 50 -1 16 5 0.0000 4 60 60 2295 1575 5\001
4 2 0 50 -1 16 5 0.0000 4 60 60 2295 1710 6\001
4 2 0 50 -1 16 5 0.0000 4 60 60 2295 1845 7\001
4 1 0 50 -1 16 5 0.0000 4 75 315 2655 900 invalide\001
4 1 0 50 -1 16 8 0.0000 4 120 585 2655 630 d'adresses\001
4 1 0 50 -1 16 8 0.0000 4 105 660 2655 765 processus 1\001
4 1 0 50 -1 16 8 0.0000 4 105 570 2655 495 traduction\001
4 1 0 50 -1 16 5 0.0000 4 75 315 2655 3735 invalide\001
4 1 0 50 -1 16 5 0.0000 4 75 315 2655 3870 invalide\001
4 1 0 50 -1 16 5 0.0000 4 75 315 2655 4005 invalide\001
4 1 0 50 -1 16 5 0.0000 4 75 315 2655 4140 invalide\001
4 1 0 50 -1 16 5 0.0000 4 60 180 2475 4275 017\001
4 2 0 50 -1 16 5 0.0000 4 60 60 2295 3330 0\001
4 2 0 50 -1 16 5 0.0000 4 60 60 2295 3465 1\001
4 2 0 50 -1 16 5 0.0000 4 60 60 2295 3600 2\001
4 2 0 50 -1 16 5 0.0000 4 60 60 2295 3735 3\001
4 2 0 50 -1 16 5 0.0000 4 60 60 2295 3870 4\001
4 2 0 50 -1 16 5 0.0000 4 60 60 2295 4005 5\001
4 2 0 50 -1 16 5 0.0000 4 60 60 2295 4140 6\001
4 2 0 50 -1 16 5 0.0000 4 60 60 2295 4275 7\001
4 1 0 50 -1 16 5 0.0000 4 75 315 2655 3330 invalide\001
4 1 0 50 -1 16 8 0.0000 4 120 585 2655 3060 d'adresses\001
4 1 0 50 -1 16 8 0.0000 4 105 570 2655 2925 traduction\001
4 1 0 50 -1 16 8 0.0000 4 105 660 2655 3195 processus 2\001
4 1 0 50 -1 16 5 0.0000 4 60 180 2475 3465 037\001
4 1 0 50 -1 16 5 0.0000 4 60 180 2475 3600 027\001
4 1 0 50 -1 16 5 0.0000 4 60 360 2790 3465 013000\001
4 1 0 50 -1 16 5 0.0000 4 60 300 2790 3600 01000\001
4 1 0 50 -1 16 5 0.0000 4 60 360 2790 4275 030000\001
4 1 0 50 -1 16 8 0.0000 4 90 375 900 2475 espace\001
4 1 0 50 -1 16 8 0.0000 4 105 660 900 2610 processus 2\001
4 1 0 50 -1 16 8 0.0000 4 90 375 900 225 espace\001
4 1 0 50 -1 16 8 0.0000 4 105 660 900 360 processus 1\001
4 2 0 50 -1 16 5 0.0000 4 60 60 405 495 0\001
4 2 0 50 -1 16 5 0.0000 4 60 420 405 2250 0177777\001
4 2 0 50 -1 16 5 0.0000 4 60 60 405 2745 0\001
4 2 0 50 -1 16 5 0.0000 4 60 420 405 4500 0177777\001
4 0 0 50 -1 16 5 0.0000 4 60 240 1395 2025 1024\001
4 1 0 50 -1 16 8 0.0000 4 90 135 900 855 text 1\001
4 0 0 50 -1 16 5 0.0000 4 60 240 1395 855 1024\001
4 2 0 50 -1 16 5 0.0000 4 60 360 405 765 020000\001
4 2 0 50 -1 16 5 0.0000 4 60 360 405 900 021777\001
4 2 0 50 -1 16 5 0.0000 4 60 420 405 1935 0160000\001
4 2 0 50 -1 16 5 0.0000 4 60 420 405 2055 0161777\001
4 0 0 50 -1 16 5 0.0000 4 60 240 1395 4275 1024\001
4 1 0 50 -1 16 8 0.0000 4 90 165 900 2025 stack 1\001
4 1 0 50 -1 16 8 0.0000 4 90 165 900 4275 stack 2\001
4 2 0 50 -1 16 5 0.0000 4 60 420 405 4185 0160000\001
4 2 0 50 -1 16 5 0.0000 4 60 420 405 4305 0161777\001
4 1 0 50 -1 16 8 0.0000 4 90 135 900 3195 text 2\001
4 0 0 50 -1 16 5 0.0000 4 60 240 1395 3195 2048\001
4 2 0 50 -1 16 5 0.0000 4 60 360 405 3015 020000\001
4 2 0 50 -1 16 5 0.0000 4 60 360 405 3330 023777\001
4 1 0 50 -1 16 8 0.0000 4 90 165 900 1350 data 1\001
4 0 0 50 -1 16 5 0.0000 4 60 240 1395 1350 2048\001
4 2 0 50 -1 16 5 0.0000 4 60 360 405 1170 040000\001
4 2 0 50 -1 16 5 0.0000 4 60 360 405 1485 043777\001
4 2 0 50 -1 16 5 0.0000 4 60 360 405 3555 040000\001
4 2 0 50 -1 16 5 0.0000 4 60 360 405 3780 042777\001
4 1 0 50 -1 16 8 0.0000 4 90 165 900 3690 data 2\001
4 0 0 50 -1 16 5 0.0000 4 60 240 1395 3690 1536\001
4 1 0 50 -1 16 8 0.0000 4 90 165 4500 1260 data 2\001
4 1 0 50 -1 16 8 0.0000 4 90 165 4500 1485 stack 1\001
4 1 0 50 -1 16 8 0.0000 4 90 165 4500 1935 data 1\001
4 1 0 50 -1 16 8 0.0000 4 90 135 4500 2295 text 2\001
4 1 0 50 -1 16 8 0.0000 4 90 135 4500 2565 text 1\001
4 2 0 50 -1 16 5 0.0000 4 60 60 4005 990 0\001
4 2 0 50 -1 16 5 0.0000 4 60 300 4005 1170 01000\001
4 2 0 50 -1 16 5 0.0000 4 60 300 4005 1755 07000\001
4 2 0 50 -1 16 5 0.0000 4 60 360 4005 2070 012777\001
4 2 0 50 -1 16 5 0.0000 4 60 300 4005 1305 03777\001
4 2 0 50 -1 16 5 0.0000 4 60 300 4005 1395 04000\001
4 2 0 50 -1 16 5 0.0000 4 60 300 4005 1530 05777\001
4 2 0 50 -1 16 5 0.0000 4 60 360 4005 2160 013000\001
4 2 0 50 -1 16 5 0.0000 4 60 360 4005 2430 016777\001
4 2 0 50 -1 16 5 0.0000 4 60 360 4005 2520 017000\001
4 2 0 50 -1 16 5 0.0000 4 60 360 4005 2640 020777\001
4 2 0 50 -1 16 5 0.0000 4 60 360 4005 2925 030000\001
4 2 0 50 -1 16 5 0.0000 4 60 360 4005 3060 031777\001
4 1 0 50 -1 16 8 0.0000 4 120 450 4500 675 m\351moire\001
4 1 0 50 -1 16 8 0.0000 4 120 495 4500 840 physique\001
4 2 0 50 -1 16 5 0.0000 4 60 420 4005 3960 0777777\001
