#FIG 3.2  Produced by xfig version 3.2.7a
Landscape
Center
Metric
A4
100.00
Single
-2
1200 2
2 1 0 1 0 7 50 -1 -1 0.000 0 0 -1 0 0 2
	 1440 450 1440 630
2 1 0 1 0 7 50 -1 -1 0.000 0 0 -1 0 0 2
	 1350 450 1350 630
2 1 0 1 0 7 50 -1 -1 0.000 0 0 -1 0 0 2
	 1260 450 1260 630
2 1 0 1 0 7 50 -1 -1 0.000 0 0 -1 0 0 2
	 1800 450 1800 630
2 1 0 1 0 7 50 -1 -1 0.000 0 0 -1 0 0 2
	 1710 450 1710 630
2 1 0 1 0 7 50 -1 -1 0.000 0 0 -1 0 0 2
	 1620 450 1620 630
2 1 0 1 0 7 50 -1 -1 0.000 0 0 -1 0 0 2
	 1530 450 1530 630
2 1 0 1 0 7 50 -1 -1 0.000 0 0 -1 0 0 2
	 2160 450 2160 630
2 1 0 1 0 7 50 -1 -1 0.000 0 0 -1 0 0 2
	 2070 450 2070 630
2 1 0 1 0 7 50 -1 -1 0.000 0 0 -1 0 0 2
	 1980 450 1980 630
2 1 0 1 0 7 50 -1 -1 0.000 0 0 -1 0 0 2
	 1890 450 1890 630
2 1 0 1 0 7 50 -1 -1 0.000 0 0 -1 0 0 2
	 2520 450 2520 630
2 1 0 1 0 7 50 -1 -1 0.000 0 0 -1 0 0 2
	 2430 450 2430 630
2 1 0 1 0 7 50 -1 -1 0.000 0 0 -1 0 0 2
	 2340 450 2340 630
2 1 0 1 0 7 50 -1 -1 0.000 0 0 -1 0 0 2
	 2250 450 2250 630
2 1 0 1 0 7 50 -1 -1 0.000 0 0 -1 0 0 2
	 2790 450 2790 630
2 1 0 1 0 7 50 -1 -1 0.000 0 0 -1 0 0 2
	 2700 450 2700 630
2 1 0 1 0 7 50 -1 -1 0.000 0 0 -1 0 0 2
	 2610 450 2610 630
2 1 0 1 0 7 50 -1 -1 0.000 0 0 -1 0 0 2
	 3240 450 3240 630
2 1 0 1 0 7 50 -1 -1 0.000 0 0 -1 0 0 2
	 3150 450 3150 630
2 1 0 1 0 7 50 -1 -1 0.000 0 0 -1 0 0 2
	 3060 450 3060 630
2 1 0 1 0 7 50 -1 -1 0.000 0 0 -1 0 0 2
	 2970 450 2970 630
2 1 0 1 0 7 50 -1 -1 0.000 0 0 -1 0 0 2
	 3600 450 3600 630
2 1 0 1 0 7 50 -1 -1 0.000 0 0 -1 0 0 2
	 3510 450 3510 630
2 1 0 1 0 7 50 -1 -1 0.000 0 0 -1 0 0 2
	 3420 450 3420 630
2 1 0 1 0 7 50 -1 -1 0.000 0 0 -1 0 0 2
	 3330 450 3330 630
2 1 0 1 0 7 50 -1 -1 0.000 0 0 -1 0 0 2
	 3960 450 3960 630
2 1 0 1 0 7 50 -1 -1 0.000 0 0 -1 0 0 2
	 3870 450 3870 630
2 1 0 1 0 7 50 -1 -1 0.000 0 0 -1 0 0 2
	 3780 450 3780 630
2 1 0 1 0 7 50 -1 -1 0.000 0 0 -1 0 0 2
	 3690 450 3690 630
2 2 0 1 0 11 51 -1 36 0.000 0 0 7 0 0 5
	 4050 450 1170 450 1170 630 4050 630 4050 450
2 2 0 1 0 0 52 -1 20 0.000 0 0 -1 0 0 5
	 1215 495 4095 495 4095 675 1215 675 1215 495
2 1 0 1 0 7 50 -1 -1 0.000 0 0 7 0 1 3
	1 1 1.00 45.00 75.00
	 2115 675 2115 900 2070 900
2 1 0 1 0 7 50 -1 -1 0.000 0 0 7 0 1 3
	1 1 1.00 45.00 75.00
	 2205 675 2205 1035 2070 1035
2 1 0 1 0 7 50 -1 -1 0.000 0 0 7 0 1 3
	1 1 1.00 45.00 75.00
	 2295 675 2295 1170 2070 1170
2 1 0 1 0 7 50 -1 -1 0.000 0 0 7 0 1 3
	1 1 1.00 45.00 75.00
	 2385 675 2385 1305 2070 1305
2 1 0 1 0 7 50 -1 -1 0.000 0 0 7 0 1 3
	1 1 1.00 45.00 75.00
	 2475 675 2475 1440 2070 1440
2 1 0 1 0 7 50 -1 -1 0.000 0 0 7 0 1 3
	1 1 1.00 45.00 75.00
	 2565 675 2565 1575 2070 1575
2 1 0 1 0 7 50 -1 -1 0.000 0 0 7 0 1 3
	1 1 1.00 45.00 75.00
	 2745 675 2745 1710 2070 1710
2 1 0 1 0 7 50 -1 -1 0.000 0 0 7 0 1 3
	1 1 1.00 45.00 75.00
	 2880 675 2880 1845 2070 1845
2 1 0 1 0 7 50 -1 -1 0.000 0 0 7 0 1 3
	1 1 1.00 45.00 75.00
	 3015 675 3015 1980 2070 1980
2 1 0 1 0 7 50 -1 -1 0.000 0 0 7 0 1 3
	1 1 1.00 45.00 75.00
	 3105 675 3105 2115 2070 2115
2 1 0 1 0 7 50 -1 -1 0.000 0 0 7 0 1 3
	1 1 1.00 45.00 75.00
	 3195 675 3195 2250 2070 2250
2 1 0 1 0 7 50 -1 -1 0.000 0 0 7 0 1 3
	1 1 1.00 45.00 75.00
	 3285 675 3285 2385 2070 2385
2 1 0 1 0 7 50 -1 -1 0.000 0 0 7 0 1 3
	1 1 1.00 45.00 75.00
	 3375 675 3375 2520 2070 2520
2 1 0 1 0 7 50 -1 -1 0.000 0 0 7 0 1 3
	1 1 1.00 45.00 75.00
	 3465 675 3465 2655 2070 2655
2 1 0 1 0 7 50 -1 -1 0.000 0 0 7 0 1 3
	1 1 1.00 45.00 75.00
	 3645 675 3645 2790 2070 2790
2 1 0 1 0 7 50 -1 -1 0.000 0 0 7 0 1 3
	1 1 1.00 45.00 75.00
	 3825 675 3825 2925 2070 2925
2 1 0 1 0 7 50 -1 -1 0.000 0 0 7 0 1 3
	1 1 1.00 45.00 75.00
	 4005 675 4005 3060 2070 3060
2 1 0 1 0 7 50 -1 -1 0.000 0 0 -1 0 0 2
	 2880 585 2880 630
4 1 0 50 -1 16 7 0.0000 4 90 60 4005 405 0\001
4 1 0 50 -1 16 7 0.0000 4 90 120 1845 405 24\001
4 1 0 50 -1 16 7 0.0000 4 90 60 3285 405 8\001
4 1 0 50 -1 16 7 0.0000 4 90 120 2565 405 16\001
4 1 0 50 -1 16 7 0.0000 4 90 120 1215 405 31\001
4 2 0 50 -1 16 7 0.0000 4 90 450 1125 585 EFLAGS\001
4 2 0 50 -1 20 6 0.0000 4 120 795 2025 1215 Virtual Interrupt Flag\001
4 2 0 50 -1 20 6 0.0000 4 120 1320 2025 1350 Alignment Check / Access Control\001
4 2 0 50 -1 20 6 0.0000 4 90 690 2025 1485 Virtual-8086 Mode\001
4 2 0 50 -1 20 6 0.0000 4 120 510 2025 1620 Resume Flag\001
4 2 0 50 -1 20 6 0.0000 4 90 495 2025 1755 Nested Task\001
4 2 0 50 -1 20 6 0.0000 4 120 705 2025 1890 I/O Privilege Level\001
4 2 0 50 -1 20 6 0.0000 4 120 540 2025 2025 Overflow Flag\001
4 2 0 50 -1 20 6 0.0000 4 120 525 2025 2160 Direction Flag\001
4 2 0 50 -1 20 6 0.0000 4 120 810 2025 2295 Interrupt Enable Flag\001
4 2 0 50 -1 20 6 0.0000 4 120 375 2025 2430 Trap Flag\001
4 2 0 50 -1 20 6 0.0000 4 120 360 2025 2565 Sign Flag\001
4 2 0 50 -1 20 6 0.0000 4 120 375 2025 2700 Zero Flag\001
4 2 0 50 -1 20 6 0.0000 4 120 750 2025 2835 Auxiliary Carry Flag\001
4 2 0 50 -1 20 6 0.0000 4 120 420 2025 2970 Parity Flag\001
4 2 0 50 -1 20 6 0.0000 4 120 405 2025 3105 Carry Flag\001
4 2 0 50 -1 20 6 0.0000 4 120 930 2025 1080 Virtual Interrupt Pending\001
4 2 0 50 -1 20 6 0.0000 4 120 285 2025 945 ID Flag\001
